{
    "Monday": [{
        "time": "9:00 - 10:00",
        "faculty": "John Doe",
        "subject": "Maths",
        "class": "ME",
        "year": "1"
    }, {
        "time": "11:00 - 12:00",
        "faculty": "Tim Cook",
        "subject": "Physics",
        "class": "CS",
        "year": "2"
    }, {
        "time": "15:00 - 17:00",
        "faculty": "Albus",
        "subject": "CompilerDesign",
        "class": "IT",
        "year": "3"
    }],
    "Tuesday": [{
        "time": "9:00 - 10:00",
        "faculty": "Albus",
        "subject": "ComputerGraphics",
        "class": "IT",
        "year": "2"
    }, {
        "time": "11:00 - 12:00",
        "faculty": "Samantha",
        "subject": "WebDesigning",
        "class": "CS",
        "year": "1"
    }, {
        "time": "20:00 - 24:00",
        "faculty": "Ash Bard",
        "subject": "Management",
        "class": "CS",
        "year": "1"
    }],
    "Wednesday": [{
        "time": "9:00 - 10:00",
        "faculty": "Albus",
        "subject": "ComputerGraphics",
        "class": "IT",
        "year": "2"
    }, {
        "time": "11:00 - 12:00",
        "faculty": "Samantha",
        "subject": "WebDesigning",
        "class": "CS",
        "year": "1"
    }],
    "Thursday": [{
        "time": "9:00 - 10:00",
        "faculty": "Albus",
        "subject": "ComputerGraphics",
        "class": "IT",
        "year": "2"
    }, {
        "time": "11:00 - 12:00",
        "faculty": "Samantha",
        "subject": "WebDesigning",
        "class": "CS",
        "year": "1"
    }, {
        "time": "19:00 - 24:00",
        "faculty": "Ash Bard",
        "subject": "Management",
        "class": "CS",
        "year": "2"
    }],
    "Friday": [{
        "time": "00:00 - 9:00",
        "faculty": "Albus",
        "subject": "ComputerGraphics",
        "class": "IT",
        "year": "2"
    },{
        "time": "9:00 - 10:00",
        "faculty": "Albus",
        "subject": "ComputerGraphics",
        "class": "IT",
        "year": "2"
    }, {
        "time": "11:00 - 12:00",
        "faculty": "Samantha",
        "subject": "WebDesigning",
        "class": "CS",
        "year": "1"
    }, {
        "time": "12:00 - 15:00",
        "faculty": "Dr. Pratyush",
        "subject": "Accounts",
        "class": "CS",
        "year": "1"
    }, {
        "time": "15:00 - 16:00",
        "faculty": "Corey",
        "subject": "MachineDesigning",
        "class": "ME",
        "year": "3"
    }, {
        "time": "16:00 - 17:00",
        "faculty": "Corey",
        "subject": "MachineDesigning",
        "class": "ME",
        "year": "3"
    }, {
        "time": "19:00 - 21:00",
        "faculty": "Ashley Greene",
        "subject": "ComputerGraphics",
        "class": "CS",
        "year": "2"
    }]
}